<?xml version="1.0" encoding="UTF-8"?>
<svg width="38px" height="26px" viewBox="0 0 38 26" version="1.1" xmlns="http://www.w3.org/2000/svg" xmlns:xlink="http://www.w3.org/1999/xlink">
    <!-- Generator: Sketch 47.1 (45422) - http://www.bohemiancoding.com/sketch -->
    <title>arrow-r</title>
    <desc>Created with Sketch.</desc>
    <defs></defs>
    <g id="Symbols" stroke="none" stroke-width="1" fill="none" fill-rule="evenodd" stroke-linecap="round">
        <g id="arrow-r" stroke="#1A171B" stroke-width="3">
            <polyline id="Stroke-1" stroke-linejoin="round" transform="translate(23.253048, 13.253048) rotate(-45.000000) translate(-23.253048, -13.253048) " points="30.2530483 5.75304833 30.2530483 20.7530483 16.2530483 20.7530483"></polyline>
            <path d="M29.2247374,23.649824 L9.03778776,3.46287435" id="Stroke-3" transform="translate(19.131263, 13.556349) rotate(-45.000000) translate(-19.131263, -13.556349) "></path>
        </g>
    </g>
</svg>