<?xml version="1.0" encoding="UTF-8"?>
<svg width="14px" height="14px" viewBox="0 0 26 26" version="1.1" xmlns="http://www.w3.org/2000/svg" xmlns:xlink="http://www.w3.org/1999/xlink">
    <!-- Generator: Sketch 47.1 (45422) - http://www.bohemiancoding.com/sketch -->
    <title>arrow</title>
    <desc>Created with Sketch.</desc>
    <defs></defs>
    <g id="Symbols" stroke="none" stroke-width="1" fill="none" fill-rule="evenodd" stroke-linecap="round">
        <g id="arrow" stroke="#F9F8F8" stroke-width="3">
            <polyline id="Stroke-1" stroke-linejoin="round" points="23.5396 9.5847 23.5396 24.2567 9.4226 24.2567"></polyline>
            <path d="M23.5396,24.2567 L2.5436,1.8707" id="Stroke-3"></path>
        </g>
    </g>
</svg>